{
  "definitions": {},
  "$schema": "http://json-schema.org/draft-07/schema#",
  "$id": "http://example.com/root.json",
  "type": "array",
  "title": "The Root Schema",
  "items": {
    "$id": "#/items",
    "type": "object",
    "title": "The Items Schema",
    "required": [
      "Name",
      "Deadline",
      "Activities"
    ],
    "properties": {
      "Name": {
        "$id": "#/items/properties/Name",
        "type": "string",
        "title": "The Name Schema",
        "default": "",
        "examples": [
          "Prepare Coffee"
        ],
        "pattern": "^(.*)$"
      },
      "Deadline": {
        "$id": "#/items/properties/Deadline",
        "type": "integer",
        "title": "The Deadline Schema",
        "default": 0,
        "examples": [
          0
        ]
      },
      "Activities": {
        "$id": "#/items/properties/Activities",
        "type": "array",
        "title": "The Activities Schema",
        "items": {
          "$id": "#/items/properties/Activities/items",
          "type": "object",
          "title": "The Items Schema",
          "required": [
            "Name",
            "Description",
            "Complete",
            "Duration",
            "Deadline",
            "InteractableSelector",
            "Priority",
            "Cost",
            "Benefit"
          ],
          "properties": {
            "Name": {
              "$id": "#/items/properties/Activities/items/properties/Name",
              "type": "string",
              "title": "The Name Schema",
              "default": "",
              "examples": [
                "Brew Coffee"
              ],
              "pattern": "^(.*)$"
            },
            "Description": {
              "$id": "#/items/properties/Activities/items/properties/Description",
              "type": "string",
              "title": "The Description Schema",
              "default": "",
              "examples": [
                "Get to the kitchen and fetch some coffee from a coffee machine"
              ],
              "pattern": "^(.*)$"
            },
            "Complete": {
              "$id": "#/items/properties/Activities/items/properties/Complete",
              "type": "boolean",
              "title": "The Complete Schema",
              "default": false,
              "examples": [
                false
              ]
            },
            "Duration": {
              "$id": "#/items/properties/Activities/items/properties/Duration",
              "type": "integer",
              "title": "The Duration Schema",
              "default": 0,
              "examples": [
                10
              ]
            },
            "Deadline": {
              "$id": "#/items/properties/Activities/items/properties/Deadline",
              "type": "integer",
              "title": "The Deadline Schema",
              "default": 0,
              "examples": [
                0
              ]
            },
            "InteractableSelector": {
              "$id": "#/items/properties/Activities/items/properties/InteractableSelector",
              "type": "string",
              "title": "The Interactableselector Schema",
              "default": "",
              "examples": [
                ".CoffeeMachine"
              ],
              "pattern": "^(.*)$"
            },
            "Priority": {
              "$id": "#/items/properties/Activities/items/properties/Priority",
              "type": "integer",
              "title": "The Priority Schema",
              "default": 0,
              "examples": [
                2
              ]
            },
            "Cost": {
              "$id": "#/items/properties/Activities/items/properties/Cost",
              "type": "object",
              "title": "The Cost Schema",
              "required": [
                "values"
              ],
              "properties": {
                "values": {
                  "$id": "#/items/properties/Activities/items/properties/Cost/properties/values",
                  "type": "object",
                  "title": "The Values Schema",
                  "required": [
                    "EMPATHY",
                    "FOCUS",
                    "PATIENCE",
                    "STRENGTH"
                  ],
                  "properties": {
                    "EMPATHY": {
                      "$id": "#/items/properties/Activities/items/properties/Cost/properties/values/properties/EMPATHY",
                      "type": "integer",
                      "title": "The Empathy Schema",
                      "default": 0,
                      "examples": [
                        0
                      ]
                    },
                    "FOCUS": {
                      "$id": "#/items/properties/Activities/items/properties/Cost/properties/values/properties/FOCUS",
                      "type": "integer",
                      "title": "The Focus Schema",
                      "default": 0,
                      "examples": [
                        0
                      ]
                    },
                    "PATIENCE": {
                      "$id": "#/items/properties/Activities/items/properties/Cost/properties/values/properties/PATIENCE",
                      "type": "number",
                      "title": "The Patience Schema",
                      "default": 0.0,
                      "examples": [
                        0.3
                      ]
                    },
                    "STRENGTH": {
                      "$id": "#/items/properties/Activities/items/properties/Cost/properties/values/properties/STRENGTH",
                      "type": "number",
                      "title": "The Strength Schema",
                      "default": 0.0,
                      "examples": [
                        0.1
                      ]
                    }
                  }
                }
              }
            },
            "Benefit": {
              "$id": "#/items/properties/Activities/items/properties/Benefit",
              "type": "object",
              "title": "The Benefit Schema",
              "required": [
                "values"
              ],
              "properties": {
                "values": {
                  "$id": "#/items/properties/Activities/items/properties/Benefit/properties/values",
                  "type": "object",
                  "title": "The Values Schema",
                  "required": [
                    "FOCUS",
                    "STRENGTH",
                    "PATIENCE",
                    "EMPATHY"
                  ],
                  "properties": {
                    "FOCUS": {
                      "$id": "#/items/properties/Activities/items/properties/Benefit/properties/values/properties/FOCUS",
                      "type": "integer",
                      "title": "The Focus Schema",
                      "default": 0,
                      "examples": [
                        0
                      ]
                    },
                    "STRENGTH": {
                      "$id": "#/items/properties/Activities/items/properties/Benefit/properties/values/properties/STRENGTH",
                      "type": "integer",
                      "title": "The Strength Schema",
                      "default": 0,
                      "examples": [
                        0
                      ]
                    },
                    "PATIENCE": {
                      "$id": "#/items/properties/Activities/items/properties/Benefit/properties/values/properties/PATIENCE",
                      "type": "integer",
                      "title": "The Patience Schema",
                      "default": 0,
                      "examples": [
                        0
                      ]
                    },
                    "EMPATHY": {
                      "$id": "#/items/properties/Activities/items/properties/Benefit/properties/values/properties/EMPATHY",
                      "type": "integer",
                      "title": "The Empathy Schema",
                      "default": 0,
                      "examples": [
                        0
                      ]
                    }
                  }
                }
              }
            }
          }
        }
      }
    }
  }
}
